{
  "712283": {
    "180": -1,
    "60": -1,
    "120": -1,
    "text": "how risky is vanguard energy etf?",
    "300": -1,
    "240": -1
  },
  "712008": {
    "180": 1,
    "60": 0,
    "120": 1,
    "text": "sprint (s) inks deal to buy a 70% stake in kroger's i-wireless",
    "300": -1,
    "240": 1
  },
  "711386": {
    "180": 0,
    "60": 1,
    "120": 0,
    "text": "what does the massive wolfcamp oil discovery mean for the energy industry?",
    "300": 1,
    "240": -1
  },
  "712017": {
    "180": 1,
    "60": 0,
    "120": 1,
    "text": "a close look at disney's dividend potential",
    "300": -1,
    "240": 1
  },
  "20161110-01340": {
    "180": 1,
    "60": 1,
    "120": 1,
    "text": "affordable care act enrollment surges following trump election",
    "300": 1,
    "240": 1
  },
  "712592": {
    "180": -1,
    "60": 1,
    "120": -1,
    "text": "dish network offers sling tv gift cards this holiday season",
    "300": -1,
    "240": -1
  },
  "20161116-00979": {
    "180": 1,
    "60": -1,
    "120": -1,
    "text": "disney extending upward trend after upgrade by deutsche bank",
    "300": 1,
    "240": 1
  },
  "711249": {
    "180": -1,
    "60": -1,
    "120": -1,
    "text": "better dividend stock: home depot inc. vs. lowe's",
    "300": -1,
    "240": -1
  },
  "20161121-00892": {
    "180": -1,
    "60": 1,
    "120": -1,
    "text": "ge sells connecticut headquarters for $31.5 million",
    "300": -1,
    "240": 1
  },
  "712134": {
    "180": 1,
    "60": -1,
    "120": -1,
    "text": "thanksgiving week and big travel numbers",
    "300": -1,
    "240": -1
  },
  "20161110-01589": {
    "180": 1,
    "60": -1,
    "120": 1,
    "text": "new balance faces social media backlash after welcoming trump",
    "300": 1,
    "240": 1
  },
  "711250": {
    "180": -1,
    "60": -1,
    "120": -1,
    "text": "are under armour's expensive sponsorships worth the cost?",
    "300": -1,
    "240": -1
  },
  "712215": {
    "180": -1,
    "60": 1,
    "120": -1,
    "text": "interesting july 2017 stock options for trv",
    "300": -1,
    "240": -1
  },
  "712596": {
    "180": -1,
    "60": 1,
    "120": -1,
    "text": "j&j immunotherapy darzalex ok'd for label expansion by fda",
    "300": -1,
    "240": -1
  },
  "712593": {
    "180": -1,
    "60": 1,
    "120": -1,
    "text": "comcast (cmcsa) to ramp up broadband speeds in 9 states",
    "300": -1,
    "240": -1
  },
  "20161109-01004": {
    "180": -1,
    "60": 1,
    "120": -1,
    "text": "coty cites 'massive distraction' of integration for sales decline",
    "300": -1,
    "240": -1
  },
  "712540": {
    "180": -1,
    "60": 0,
    "120": 1,
    "text": "constellation brands declares new buyback plan; stock up",
    "300": -1,
    "240": -1
  },
  "709977": {
    "180": -1,
    "60": -1,
    "120": -1,
    "text": "procter & gamble co.'s plan to save $10 billion",
    "300": -1,
    "240": -1
  },
  "712208": {
    "180": 1,
    "60": 1,
    "120": 1,
    "text": "one put, one call option to know about for mcdonald's",
    "300": -1,
    "240": -1
  },
  "20161111-00641": {
    "180": 1,
    "60": 1,
    "120": 1,
    "text": "disney shares rise 3% after ceo offers upbeat outlook",
    "300": 1,
    "240": 1
  },
  "709424": {
    "180": 1,
    "60": 1,
    "120": 1,
    "text": "the zacks analyst blog highlights: procter & gamble, berkshire hathaway, altria, pepsi and nordstrom",
    "300": 1,
    "240": 1
  },
  "712189": {
    "180": -1,
    "60": -1,
    "120": -1,
    "text": "one put, one call option to know about for international business machines",
    "300": -1,
    "240": -1
  },
  "712147": {
    "180": -1,
    "60": 1,
    "120": -1,
    "text": "the zacks analyst blog highlights: johnson & johnson, ascena retail, financial sector, industrials and health care",
    "300": 1,
    "240": 1
  },
  "711320": {
    "180": 1,
    "60": 1,
    "120": 1,
    "text": "3 top stocks you can buy and hold for the next decade",
    "300": 1,
    "240": 1
  },
  "712141": {
    "180": 1,
    "60": -1,
    "120": -1,
    "text": "5 must-see slides from procter & gamble co.'s analyst presentation",
    "300": -1,
    "240": -1
  },
  "20161116-01149": {
    "180": -1,
    "60": -1,
    "120": -1,
    "text": "cisco shows signs of pressure",
    "300": 1,
    "240": -1
  },
  "712104": {
    "180": -1,
    "60": -1,
    "120": -1,
    "text": "notable etf outflow detected - pph, sny, bmy, pfe",
    "300": -1,
    "240": -1
  },
  "711935": {
    "180": 1,
    "60": 1,
    "120": 1,
    "text": "3 top cable stocks to buy now",
    "300": 1,
    "240": 1
  },
  "710688": {
    "180": -1,
    "60": 0,
    "120": 1,
    "text": "stock market news for november 17, 2016",
    "300": -1,
    "240": -1
  },
  "711210": {
    "180": -1,
    "60": -1,
    "120": -1,
    "text": "3 big drug stocks that billionaire money managers dumped in q3",
    "300": -1,
    "240": -1
  },
  "712561": {
    "180": -1,
    "60": -1,
    "120": -1,
    "text": "warren buffett's latest $7 billion investment win",
    "300": -1,
    "240": -1
  },
  "712620": {
    "180": -1,
    "60": 1,
    "120": 0,
    "text": "dow movers: v, intc",
    "300": -1,
    "240": -1
  },
  "20161117-01310": {
    "180": -1,
    "60": -1,
    "120": -1,
    "text": "nike boosts dividend to 18 cents",
    "300": -1,
    "240": -1
  },
  "712003": {
    "180": 1,
    "60": 0,
    "120": 1,
    "text": "frontier communications' vantage tv now in north carolina",
    "300": -1,
    "240": 1
  },
  "20161117-01326": {
    "180": 1,
    "60": 1,
    "120": 1,
    "text": "intel uses chips acquired in deal with startup to drive deep learning",
    "300": -1,
    "240": -1
  },
  "20161103-01129": {
    "180": -1,
    "60": -1,
    "120": -1,
    "text": "monster beverage results disappoint",
    "300": -1,
    "240": -1
  },
  "20161121-01088": {
    "180": 1,
    "60": 1,
    "120": 1,
    "text": "pfizer files 8k - other events",
    "300": 1,
    "240": 1
  },
  "20161121-01113": {
    "180": 1,
    "60": 1,
    "120": 1,
    "text": "boeing taps ge executive to lead aircraft arm -- update",
    "300": -1,
    "240": -1
  },
  "708532": {
    "180": -1,
    "60": 1,
    "120": 1,
    "text": "unitedhealth group hits 52-week high on solid earnings, view",
    "300": -1,
    "240": -1
  },
  "711314": {
    "180": 1,
    "60": 1,
    "120": 1,
    "text": "jnj makes notable cross below critical moving average",
    "300": -1,
    "240": 1
  },
  "20161110-01438": {
    "180": -1,
    "60": -1,
    "120": -1,
    "text": "fcc tells at&t its 'zero rating' practice may be unfair",
    "300": -1,
    "240": -1
  },
  "20161121-01150": {
    "180": 1,
    "60": 1,
    "120": 1,
    "text": "boeing taps ge executive to lead aircraft arm -- 2nd update",
    "300": 1,
    "240": 1
  },
  "710625": {
    "180": 0,
    "60": 1,
    "120": 1,
    "text": "zacks market edge highlights: chevron, apache, eog resources, pioneer natural resources and whiting petroleum",
    "300": -1,
    "240": -1
  },
  "711094": {
    "180": 1,
    "60": 1,
    "120": -1,
    "text": "verizon gains fcc approval for xo communications buyout",
    "300": 1,
    "240": 1
  },
  "20161117-01327": {
    "180": 1,
    "60": 1,
    "120": 1,
    "text": "intel uses chips acquired in deal with startup to drive deep learning",
    "300": -1,
    "240": -1
  },
  "707838": {
    "180": 1,
    "60": 1,
    "120": 1,
    "text": "noteworthy etf inflows: ita, ba, utx, noc",
    "300": 1,
    "240": 1
  },
  "709441": {
    "180": 1,
    "60": -1,
    "120": 1,
    "text": "united technologies' arm in deal with mexican vivaaerobus",
    "300": 1,
    "240": 1
  },
  "20161107-01112": {
    "180": -1,
    "60": -1,
    "120": -1,
    "text": "mcdonald''s planning drive-thru pickup app",
    "300": -1,
    "240": -1
  },
  "710129": {
    "180": -1,
    "60": 1,
    "120": 1,
    "text": "noteworthy etf inflows: iyh, mrk, unh, mdt",
    "300": 1,
    "240": -1
  },
  "712820": {
    "180": 1,
    "60": 1,
    "120": 0,
    "text": "exxon mobil corporation (xom) stock needs this to happen",
    "300": 1,
    "240": 1
  },
  "710126": {
    "180": -1,
    "60": 1,
    "120": 1,
    "text": "about those cheap boeing 737s: united continental doesn't want them",
    "300": 1,
    "240": -1
  },
  "20161121-01108": {
    "180": 1,
    "60": 1,
    "120": 1,
    "text": "chipotle accused of lying about calorie count",
    "300": 1,
    "240": 1
  },
  "20161117-01011": {
    "180": -1,
    "60": -1,
    "120": 1,
    "text": "aol will lay off close to 500 employees",
    "300": -1,
    "240": -1
  },
  "20161109-01313": {
    "180": 1,
    "60": 1,
    "120": 1,
    "text": "companies weigh impact of donald trump win -- 2nd update",
    "300": 1,
    "240": 1
  },
  "710113": {
    "180": -1,
    "60": 0,
    "120": -1,
    "text": "dow movers: gs, vz",
    "300": 1,
    "240": -1
  },
  "710066": {
    "180": 1,
    "60": 1,
    "120": 1,
    "text": "the zacks analyst blog highlights: mcdonald's, bank of new york mellon, 3m, constellation brands and viacom",
    "300": 1,
    "240": 1
  },
  "712184": {
    "180": 1,
    "60": 1,
    "120": 1,
    "text": "in salesforce.com, inc. (crm) stock, bet long with a proven winner",
    "300": 1,
    "240": 1
  },
  "704838": {
    "180": 1,
    "60": -1,
    "120": 1,
    "text": "cit group inc (del) (cit) ex-dividend date scheduled for november 08, 2016",
    "300": 1,
    "240": 1
  },
  "20161117-01105": {
    "180": -1,
    "60": 0,
    "120": -1,
    "text": "fcc approves verizon purchase of xo fiber network -fortune",
    "300": 1,
    "240": 1
  },
  "712221": {
    "180": -1,
    "60": -1,
    "120": -1,
    "text": "one put, one call option to know about for unitedhealth group",
    "300": -1,
    "240": -1
  },
  "712651": {
    "180": -1,
    "60": -1,
    "120": -1,
    "text": "holiday shopping: 5 technology devices you can spend less on",
    "300": -1,
    "240": -1
  },
  "712055": {
    "180": -1,
    "60": -1,
    "120": -1,
    "text": "xlp, ko, mo, pep: etf inflow alert",
    "300": -1,
    "240": -1
  },
  "711934": {
    "180": 1,
    "60": 1,
    "120": 1,
    "text": "symantec confirms buying id protector lifelock for $2.3b",
    "300": 1,
    "240": 1
  },
  "712806": {
    "180": 1,
    "60": 1,
    "120": 1,
    "text": "why trump would smack time warner inc. (twx) down",
    "300": 1,
    "240": 1
  },
  "712679": {
    "180": -1,
    "60": -1,
    "120": -1,
    "text": "aduro reports partial hold lift on ladd studies in u.s.",
    "300": -1,
    "240": -1
  },
  "710722": {
    "180": -1,
    "60": -1,
    "120": -1,
    "text": "3 brands procter & gamble co. needs to succeed in 2017",
    "300": -1,
    "240": -1
  },
  "708864": {
    "180": 1,
    "60": 1,
    "120": 1,
    "text": "interesting january 2018 stock options for cat",
    "300": 1,
    "240": 0
  },
  "712811": {
    "180": 1,
    "60": 1,
    "120": 0,
    "text": "strategy to yieldboost jpm to 6% using options",
    "300": 1,
    "240": 1
  },
  "712584": {
    "180": -1,
    "60": 1,
    "120": -1,
    "text": "comcast invests in buzzfeed, to fortify digital media hold",
    "300": -1,
    "240": -1
  },
  "709483": {
    "180": 1,
    "60": -1,
    "120": 1,
    "text": "better buy: caterpillar inc. vs. united technologies",
    "300": 1,
    "240": 1
  },
  "711206": {
    "180": -1,
    "60": -1,
    "120": -1,
    "text": "battle of dividends: mcdonald's corporation vs. pepsico inc.",
    "300": -1,
    "240": -1
  },
  "712196": {
    "180": 1,
    "60": 1,
    "120": 1,
    "text": "one put, one call option to know about for jpmorgan chase",
    "300": 1,
    "240": 1
  },
  "711336": {
    "180": -1,
    "60": 0,
    "120": -1,
    "text": "daily dividend report: fdx, cb, pep, nke, a",
    "300": -1,
    "240": -1
  },
  "20161123-00758": {
    "180": -1,
    "60": -1,
    "120": -1,
    "text": "avaya weighing bankruptcy filing, sale of call-center software unit",
    "300": -1,
    "240": -1
  },
  "712032": {
    "180": 0,
    "60": -1,
    "120": -1,
    "text": "xly, hd, twx, nke: etf inflow alert",
    "300": -1,
    "240": -1
  },
  "20161103-01224": {
    "180": 1,
    "60": 1,
    "120": 1,
    "text": "correction to fracking bans story",
    "300": 1,
    "240": 1
  },
  "20161121-01089": {
    "180": 1,
    "60": 1,
    "120": 1,
    "text": "pfizer files 8k - other events",
    "300": 1,
    "240": 1
  },
  "712016": {
    "180": 1,
    "60": 0,
    "120": 1,
    "text": "can exxonmobil's dividend even survive?",
    "300": -1,
    "240": 1
  },
  "712181": {
    "180": -1,
    "60": -1,
    "120": -1,
    "text": "interesting may 2017 stock options for hd",
    "300": -1,
    "240": -1
  },
  "712269": {
    "180": -1,
    "60": -1,
    "120": -1,
    "text": "espn subscriber losses finally take their toll at walt disney co",
    "300": -1,
    "240": -1
  },
  "707718": {
    "180": 1,
    "60": 1,
    "120": 1,
    "text": "trade of the day: ishares dow jones us aerospace & def.etf (ita) a portfolio stalwart",
    "300": 1,
    "240": 1
  },
  "710199": {
    "180": 1,
    "60": 1,
    "120": 1,
    "text": "dow analyst moves: gs",
    "300": 1,
    "240": 1
  },
  "711828": {
    "180": 1,
    "60": 1,
    "120": 1,
    "text": "which retailers will be open this thanksgiving?",
    "300": 1,
    "240": 1
  },
  "712277": {
    "180": -1,
    "60": -1,
    "120": -1,
    "text": "dick's sporting goods isn't out of the woods yet",
    "300": -1,
    "240": -1
  },
  "711937": {
    "180": 1,
    "60": 1,
    "120": 1,
    "text": "here's how wal-mart is reshaping its online business",
    "300": 1,
    "240": 1
  },
  "712195": {
    "180": -1,
    "60": -1,
    "120": -1,
    "text": "interesting january 2018 stock options for jnj",
    "300": 1,
    "240": 1
  },
  "20161103-01210": {
    "180": -1,
    "60": -1,
    "120": -1,
    "text": "monster beverage sales growth slows -- update",
    "300": -1,
    "240": -1
  },
  "706552": {
    "180": 1,
    "60": -1,
    "120": -1,
    "text": "3 dividend growers that are finally bargains (mmm, ups, pg)",
    "300": 1,
    "240": 1
  },
  "709527": {
    "180": 1,
    "60": -1,
    "120": 1,
    "text": "iym, dd, dow, mon: large inflows detected at etf",
    "300": 1,
    "240": 1
  },
  "20161117-01331": {
    "180": -1,
    "60": -1,
    "120": -1,
    "text": "intel uses acquired chips to drive deep learning",
    "300": 1,
    "240": 1
  },
  "20161111-00626": {
    "180": 1,
    "60": -1,
    "120": 1,
    "text": "correction to ibm watson story",
    "300": 1,
    "240": 1
  },
  "20161122-01243": {
    "180": -1,
    "60": 0,
    "120": -1,
    "text": "amazon''s holiday deliveries face turbulence from pilot strike",
    "300": 1,
    "240": -1
  },
  "712798": {
    "180": 1,
    "60": 1,
    "120": 1,
    "text": "why intel corporation (intc) stock needs to catch up sooner than later",
    "300": 1,
    "240": 1
  },
  "712472": {
    "180": 1,
    "60": 1,
    "120": 1,
    "text": "why mexico's oil reform is a huge opportunity for investors",
    "300": -1,
    "240": 1
  },
  "712236": {
    "180": 1,
    "60": -1,
    "120": 1,
    "text": "interesting january 2018 stock options for xom",
    "300": 1,
    "240": 1
  },
  "706260": {
    "180": -1,
    "60": -1,
    "120": -1,
    "text": "hallmark financial (hall) q3 earnings miss, revenues beat",
    "300": -1,
    "240": -1
  },
  "712677": {
    "180": -1,
    "60": -1,
    "120": -1,
    "text": "novartis buys selexys on favorable phase ii data on selg1",
    "300": -1,
    "240": -1
  },
  "709581": {
    "180": 1,
    "60": 0,
    "120": 1,
    "text": "how a donald trump presidency could affect infrastructure stocks",
    "300": 1,
    "240": 1
  },
  "710483": {
    "180": 1,
    "60": 1,
    "120": 1,
    "text": "soft drink stocks' q3 earnings lineup for nov 18: brfh, ltea",
    "300": 1,
    "240": 1
  },
  "710700": {
    "180": -1,
    "60": 1,
    "120": -1,
    "text": "how royal dutch shell plc has changed in the past three years",
    "300": -1,
    "240": -1
  },
  "710644": {
    "180": 0,
    "60": 1,
    "120": 1,
    "text": "3 stocks to buy with dividends yielding more than 3%",
    "300": -1,
    "240": -1
  },
  "20161109-01047": {
    "180": 1,
    "60": 1,
    "120": 1,
    "text": "trump''s win leaves health insurers with questions -- 2nd update",
    "300": 1,
    "240": 1
  },
  "712282": {
    "180": -1,
    "60": -1,
    "120": -1,
    "text": "why unitedhealth is the only healthcare insurer to own",
    "300": -1,
    "240": -1
  },
  "710619": {
    "180": 0,
    "60": 1,
    "120": 1,
    "text": "the zacks analyst blog highlights: chevron, exxon mobil, bp and royal dutch shell",
    "300": -1,
    "240": -1
  },
  "710672": {
    "180": 1,
    "60": 1,
    "120": 1,
    "text": "noteworthy etf inflows: iyg, bac, c, axp",
    "300": 1,
    "240": 1
  },
  "20161122-01151": {
    "180": 1,
    "60": 1,
    "120": 1,
    "text": "petroleos de venezuela bonds tumble on payment delay",
    "300": 1,
    "240": 1
  },
  "20161121-01138": {
    "180": 1,
    "60": 0,
    "120": 1,
    "text": "presidio planning to file for ipo as soon as this week source",
    "300": 1,
    "240": 1
  },
  "712199": {
    "180": 1,
    "60": 1,
    "120": 1,
    "text": "interesting may 2017 stock options for ko",
    "300": 1,
    "240": 1
  },
  "711204": {
    "180": -1,
    "60": -1,
    "120": -1,
    "text": "7 top stocks to buy with trump as president",
    "300": -1,
    "240": -1
  },
  "20161115-01452": {
    "180": -1,
    "60": 1,
    "120": 1,
    "text": "gap names teri list-stoll as evp and cfo, succeeding sabrina simmons",
    "300": -1,
    "240": -1
  },
  "712826": {
    "180": 1,
    "60": 1,
    "120": 0,
    "text": "6 dividend stocks rewarding shareholders with a raise",
    "300": 1,
    "240": 1
  },
  "20161122-01087": {
    "180": -1,
    "60": 0,
    "120": -1,
    "text": "market snapshot: dow closes above 19,000 as stocks log second straight record session",
    "300": -1,
    "240": -1
  },
  "711307": {
    "180": -1,
    "60": 0,
    "120": 1,
    "text": "stock market news for november 18, 2016",
    "300": -1,
    "240": -1
  },
  "710102": {
    "180": 1,
    "60": 1,
    "120": 1,
    "text": "ishares u.s. financials etf experiences big inflow",
    "300": -1,
    "240": -1
  },
  "712211": {
    "180": 1,
    "60": 1,
    "120": 1,
    "text": "will general electric stock extend its \u201ctrump bump\u201d? (ge)",
    "300": 1,
    "240": 1
  },
  "712831": {
    "180": 1,
    "60": 1,
    "120": 0,
    "text": "how to yieldboost axp to 4.5% using options",
    "300": 1,
    "240": 1
  },
  "20161109-01443": {
    "180": -1,
    "60": 1,
    "120": 1,
    "text": "sunoco logistics announces crude oil jv with exxonmobil - quick facts",
    "300": -1,
    "240": -1
  },
  "712543": {
    "180": 1,
    "60": 1,
    "120": 1,
    "text": "5 dividend stocks to put on your shopping list",
    "300": 1,
    "240": 1
  },
  "712764": {
    "180": 1,
    "60": 0,
    "120": 1,
    "text": "the zacks analyst blog highlights: coca-cola, disney, danaher, halliburton and time warner",
    "300": 1,
    "240": 1
  },
  "20161121-01180": {
    "180": 1,
    "60": 0,
    "120": 1,
    "text": "boeing appoints ge''s executive mcallister as ceo of commercial airplanes",
    "300": 1,
    "240": 1
  },
  "711968": {
    "180": -1,
    "60": -1,
    "120": 0,
    "text": "dow movers: mmm, xom",
    "300": -1,
    "240": -1
  },
  "20161116-01125": {
    "180": 1,
    "60": 1,
    "120": 1,
    "text": "cisco profit down, shares down on q2 outlook",
    "300": 1,
    "240": -1
  },
  "712629": {
    "180": -1,
    "60": -1,
    "120": -1,
    "text": "3 top-ranked retail stocks worth a look ahead of black friday",
    "300": -1,
    "240": -1
  },
  "20161117-01003": {
    "180": 1,
    "60": 1,
    "120": 1,
    "text": "mexico lifts rates amid peso''s fall, trump''s rise",
    "300": 1,
    "240": -1
  },
  "710515": {
    "180": 1,
    "60": 1,
    "120": 1,
    "text": "health care sector update for 11/17/2016: nwbo",
    "300": 1,
    "240": 1
  },
  "20161117-01288": {
    "180": 1,
    "60": 1,
    "120": 1,
    "text": "pfizer files 8k - other events",
    "300": 1,
    "240": 1
  },
  "712308": {
    "180": 1,
    "60": -1,
    "120": 1,
    "text": "cloud m&a: oracle corporation (orcl) to buy dns provider dyn",
    "300": 1,
    "240": 1
  },
  "712136": {
    "180": -1,
    "60": -1,
    "120": 1,
    "text": "stock market news for november 21, 2016",
    "300": -1,
    "240": -1
  },
  "711214": {
    "180": -1,
    "60": -1,
    "120": -1,
    "text": "jpmorgan (jpm) to pay $264m fine for china hiring scandal",
    "300": -1,
    "240": -1
  },
  "710579": {
    "180": 1,
    "60": 1,
    "120": 1,
    "text": "3 great stocks for your roth ira",
    "300": 1,
    "240": 1
  },
  "20161109-01041": {
    "180": -1,
    "60": -1,
    "120": -1,
    "text": "z energy upgrades guidance after 1st half profit rise",
    "300": -1,
    "240": -1
  },
  "710720": {
    "180": 1,
    "60": 1,
    "120": 1,
    "text": "3 stocks warren buffett is buying",
    "300": 1,
    "240": 1
  },
  "710791": {
    "180": 1,
    "60": -1,
    "120": -1,
    "text": "the 3 lowest p/e large cap tech stocks today",
    "300": 1,
    "240": -1
  },
  "712906": {
    "180": 1,
    "60": 1,
    "120": 1,
    "text": "palo alto networks inc (panw) stock is in for more pain",
    "300": 1,
    "240": 1
  },
  "712659": {
    "180": -1,
    "60": -1,
    "120": -1,
    "text": "oracle acquires dns-provider dyn, expands cloud portfolio",
    "300": -1,
    "240": -1
  },
  "712226": {
    "180": -1,
    "60": -1,
    "120": -1,
    "text": "interesting june 2017 stock options for utx",
    "300": 0,
    "240": 0
  },
  "712554": {
    "180": -1,
    "60": 0,
    "120": -1,
    "text": "3 dividend stocks to buy now and hold for 20 years",
    "300": -1,
    "240": -1
  },
  "20161109-01453": {
    "180": 1,
    "60": 1,
    "120": 1,
    "text": "companies weigh impact of donald trump win -- 3rd update",
    "300": -1,
    "240": -1
  },
  "20161121-01098": {
    "180": 1,
    "60": 1,
    "120": 1,
    "text": "apple reportedly dropping router division",
    "300": 1,
    "240": 1
  },
  "712013": {
    "180": 1,
    "60": -1,
    "120": -1,
    "text": "you'll never guess who owns the most spectacular new cancer drug",
    "300": 1,
    "240": 1
  },
  "712166": {
    "180": -1,
    "60": -1,
    "120": -1,
    "text": "one put, one call option to know about for general electric",
    "300": -1,
    "240": -1
  },
  "707136": {
    "180": 1,
    "60": 1,
    "120": 1,
    "text": "noteworthy etf outflows: vig, pep, ko, mmm",
    "300": 1,
    "240": 1
  },
  "20161121-01181": {
    "180": 1,
    "60": 0,
    "120": 1,
    "text": "boeing appoints ge's executive mcallister as ceo of commercial airplanes",
    "300": 1,
    "240": 1
  },
  "712231": {
    "180": 1,
    "60": 1,
    "120": 1,
    "text": "interesting january 2018 stock options for wmt",
    "300": 1,
    "240": 1
  },
  "20161122-00952": {
    "180": -1,
    "60": 1,
    "120": -1,
    "text": "canada taps boeing''s super hornets in fleet overhaul -- update",
    "300": -1,
    "240": -1
  },
  "712872": {
    "180": 1,
    "60": 1,
    "120": 1,
    "text": "is donald trump a blessing or a curse for big pharma?",
    "300": -1,
    "240": 1
  },
  "711237": {
    "180": -1,
    "60": -1,
    "120": -1,
    "text": "dow movers: pg, csco",
    "300": -1,
    "240": -1
  },
  "20161118-00677": {
    "180": -1,
    "60": 1,
    "120": -1,
    "text": "should the bond market be more honest? some on wall street say 'yes'",
    "300": -1,
    "240": -1
  },
  "711930": {
    "180": 1,
    "60": 1,
    "120": 1,
    "text": "caterpillar's 47-month low continues, october sales dip 12%",
    "300": 1,
    "240": 1
  },
  "708843": {
    "180": 1,
    "60": 1,
    "120": 1,
    "text": "interesting january 2019 stock options for dd",
    "300": 1,
    "240": 1
  },
  "710756": {
    "180": -1,
    "60": -1,
    "120": -1,
    "text": "what a donald trump presidency means for the energy and industrials sector",
    "300": -1,
    "240": -1
  },
  "20161114-01558": {
    "180": 1,
    "60": -1,
    "120": 1,
    "text": "mcdonald''s trying sriracha big mac",
    "300": 1,
    "240": 1
  },
  "711826": {
    "180": 1,
    "60": 1,
    "120": 1,
    "text": "$13 billion opportunity: 5 companies that could dominate the alzheimer's disease market",
    "300": 1,
    "240": 1
  },
  "711089": {
    "180": 1,
    "60": 1,
    "120": -1,
    "text": "wendy's (wen) scales a 52-week high on strong q3 results",
    "300": 1,
    "240": 1
  },
  "711385": {
    "180": 0,
    "60": 1,
    "120": 0,
    "text": "the zacks friday finish line highlights: massive wolfcamp oil discovery",
    "300": 1,
    "240": -1
  },
  "712578": {
    "180": -1,
    "60": 0,
    "120": 1,
    "text": "williams-sonoma (wsm) banks on innovation, revenues soft",
    "300": -1,
    "240": -1
  },
  "712150": {
    "180": -1,
    "60": 1,
    "120": -1,
    "text": "zacks industry outlook highlights: target, wal-mart, amazon, macy's and avis budget group",
    "300": 1,
    "240": 1
  },
  "712207": {
    "180": -1,
    "60": -1,
    "120": -1,
    "text": "microsoft corporation (msft) stock is due for even bigger gains",
    "300": -1,
    "240": -1
  },
  "712266": {
    "180": 1,
    "60": 1,
    "120": 1,
    "text": "google shop launches: alphabet inc (googl) partners with best buy co inc (bby)",
    "300": 1,
    "240": 1
  },
  "709907": {
    "180": -1,
    "60": -1,
    "120": 1,
    "text": "is symantec (symc) mulling over the buyout of lifelock?",
    "300": -1,
    "240": -1
  },
  "20161110-01554": {
    "180": 1,
    "60": -1,
    "120": -1,
    "text": "petrobras posts big loss on write-downs",
    "300": -1,
    "240": 1
  },
  "712904": {
    "180": 1,
    "60": 1,
    "120": 1,
    "text": "how will a trump presidency affect general electric?",
    "300": 1,
    "240": 1
  },
  "712769": {
    "180": 1,
    "60": 0,
    "120": 1,
    "text": "zacks industry outlook highlights: apple, alphabet, alibaba, mastercard and visa",
    "300": 1,
    "240": 1
  },
  "20161116-00203": {
    "180": -1,
    "60": 1,
    "120": 1,
    "text": "cisco systems q1 17 earnings conference call at 4:30 pm et",
    "300": -1,
    "240": -1
  },
  "20161121-01092": {
    "180": 1,
    "60": 1,
    "120": 1,
    "text": "boeing taps ge executive to lead aircraft arm",
    "300": 1,
    "240": 1
  },
  "712722": {
    "180": 1,
    "60": 1,
    "120": 1,
    "text": "box office paydays for thanksgiving weekend",
    "300": 1,
    "240": 1
  },
  "712594": {
    "180": -1,
    "60": 1,
    "120": -1,
    "text": "jack in the box (jack) stock falls despite q4 earnings beat",
    "300": -1,
    "240": -1
  },
  "20161122-01176": {
    "180": 1,
    "60": 1,
    "120": 1,
    "text": "brady dougan gets back in the game with $3 billion investment",
    "300": 1,
    "240": 1
  },
  "710678": {
    "180": -1,
    "60": 0,
    "120": 1,
    "text": "itot, xom, t, pg: etf inflow alert",
    "300": -1,
    "240": -1
  },
  "20161109-01353": {
    "180": -1,
    "60": -1,
    "120": -1,
    "text": "trump victory throws doubt on at&t-time warner deal, net neutrality--update",
    "300": -1,
    "240": -1
  },
  "712828": {
    "180": 1,
    "60": 1,
    "120": 0,
    "text": "how to buy nvidia corporation (nvda) stock at a 21% discount",
    "300": 1,
    "240": 1
  },
  "20161122-00967": {
    "180": -1,
    "60": -1,
    "120": -1,
    "text": "ntsb cites pilot actions in october runway accident involving pence plane",
    "300": -1,
    "240": -1
  },
  "712212": {
    "180": -1,
    "60": 1,
    "120": 1,
    "text": "one put, one call option to know about for procter & gamble",
    "300": -1,
    "240": -1
  },
  "712634": {
    "180": 1,
    "60": 1,
    "120": 1,
    "text": "2 ways to collect on netflix, inc. (nflx) stock",
    "300": -1,
    "240": 0
  },
  "711093": {
    "180": 1,
    "60": 1,
    "120": -1,
    "text": "aar corp and air new zealand sign pbh partnership deal",
    "300": 1,
    "240": 1
  },
  "711305": {
    "180": 1,
    "60": 1,
    "120": 1,
    "text": "notable etf inflow detected - spy, brk.b, vz, cmcsa",
    "300": -1,
    "240": 1
  },
  "20161122-01191": {
    "180": 1,
    "60": 0,
    "120": 1,
    "text": "canada taps boeing''s super hornets in fleet overhaul -- 2nd update",
    "300": 1,
    "240": 1
  },
  "20161117-01064": {
    "180": 0,
    "60": 1,
    "120": 1,
    "text": "coca-cola creates selfie bottle",
    "300": 1,
    "240": 1
  },
  "712685": {
    "180": -1,
    "60": -1,
    "120": -1,
    "text": "ally financial resolves legacy mortgage claims with doj",
    "300": -1,
    "240": -1
  },
  "20161118-00678": {
    "180": -1,
    "60": 1,
    "120": -1,
    "text": "should the bond market be more honest? some on wall street say ''yes''",
    "300": -1,
    "240": -1
  },
  "711303": {
    "180": -1,
    "60": 0,
    "120": 1,
    "text": "company news for november 18, 2016",
    "300": -1,
    "240": -1
  },
  "706971": {
    "180": -1,
    "60": -1,
    "120": -1,
    "text": "encore capital (ecpg) q3 earnings and revenues miss",
    "300": -1,
    "240": -1
  },
  "20161117-01295": {
    "180": -1,
    "60": -1,
    "120": -1,
    "text": "nike boosts dividend to 18 cents from 16 cents",
    "300": -1,
    "240": -1
  },
  "710682": {
    "180": -1,
    "60": 0,
    "120": 1,
    "text": "j&j (jnj) stelara gets approval in eu for label expansion",
    "300": -1,
    "240": -1
  },
  "710645": {
    "180": 0,
    "60": 1,
    "120": 1,
    "text": "is illinois tool works stock still a good value?",
    "300": -1,
    "240": -1
  },
  "704892": {
    "180": 1,
    "60": -1,
    "120": -1,
    "text": "berkshire hathaway (brk.b) q3 earnings beat, improve y/y",
    "300": 1,
    "240": 1
  },
  "712151": {
    "180": -1,
    "60": 1,
    "120": -1,
    "text": "target, wal-mart, home depot, lowe's and children's place are part of zacks earnings preview",
    "300": 1,
    "240": 1
  },
  "20161109-01484": {
    "180": -1,
    "60": 1,
    "120": -1,
    "text": "yahoo looking to determine if hacker has access to user accounts",
    "300": -1,
    "240": -1
  },
  "711203": {
    "180": -1,
    "60": -1,
    "120": -1,
    "text": "williams-sonoma (wsm) earnings top, revenues lag in q3",
    "300": -1,
    "240": -1
  },
  "711313": {
    "180": 1,
    "60": 1,
    "120": 1,
    "text": "industrial select sector spdr fund experiences big inflow",
    "300": -1,
    "240": 1
  },
  "706984": {
    "180": -1,
    "60": -1,
    "120": -1,
    "text": "how a donald trump presidency could affect caterpillar inc. stock",
    "300": -1,
    "240": -1
  },
  "709429": {
    "180": 1,
    "60": -1,
    "120": 1,
    "text": "the zacks analyst blog highlights: unitedhealth group, merck, jpmorgan chase, goldman sachs group and cisco systems",
    "300": 1,
    "240": 1
  },
  "712555": {
    "180": -1,
    "60": 0,
    "120": -1,
    "text": "7 stocks that are ridiculously cheap right now",
    "300": -1,
    "240": -1
  },
  "712631": {
    "180": -1,
    "60": 1,
    "120": 0,
    "text": "3 stocks that turned $8,000 into $90,400 (or more) in 26 years",
    "300": -1,
    "240": -1
  },
  "704782": {
    "180": 1,
    "60": 1,
    "120": 1,
    "text": "boeing company  (ba) ex-dividend date scheduled for november 08, 2016",
    "300": 1,
    "240": 1
  },
  "712574": {
    "180": -1,
    "60": 0,
    "120": 1,
    "text": "coca-cola (ko) marketing initiatives solid, fx woes stay",
    "300": -1,
    "240": -1
  },
  "20161104-00518": {
    "180": -1,
    "60": 1,
    "120": 1,
    "text": "berkshire hathaway reports higher revenue",
    "300": -1,
    "240": -1
  },
  "705432": {
    "180": 1,
    "60": 1,
    "120": 1,
    "text": "pra group (praa) q3 earnings & revenues miss estimates",
    "300": 1,
    "240": 1
  },
  "706486": {
    "180": -1,
    "60": -1,
    "120": -1,
    "text": "dow movers: trv, pfe",
    "300": -1,
    "240": -1
  },
  "20161123-00759": {
    "180": -1,
    "60": -1,
    "120": -1,
    "text": "avaya weighing bankruptcy filing, sale of call-center software unit",
    "300": -1,
    "240": -1
  },
  "712900": {
    "180": 1,
    "60": 1,
    "120": 1,
    "text": "bank of america corp (bac) stock is the best bet in the sector",
    "300": 1,
    "240": 1
  },
  "712741": {
    "180": 1,
    "60": 1,
    "120": 1,
    "text": "why bank of america will benefit more than other banks from higher interest rates",
    "300": 1,
    "240": 1
  },
  "708038": {
    "180": 1,
    "60": 1,
    "120": 1,
    "text": "procter & gamble co (pg) offers growth and stability",
    "300": 1,
    "240": 1
  },
  "712654": {
    "180": -1,
    "60": -1,
    "120": -1,
    "text": "here's what costco and sam's are doing for black friday",
    "300": -1,
    "240": -1
  },
  "711417": {
    "180": -1,
    "60": -1,
    "120": -1,
    "text": "how a trump presidency will affect industrials",
    "300": -1,
    "240": -1
  },
  "711811": {
    "180": 1,
    "60": 1,
    "120": 1,
    "text": "nike (nke) hikes dividend, bolsters shareholders' confidence",
    "300": 1,
    "240": 1
  },
  "712188": {
    "180": 1,
    "60": 1,
    "120": 1,
    "text": "nike inc (nke) stock boosts dividend, shareholder confidence",
    "300": -1,
    "240": 1
  },
  "709891": {
    "180": -1,
    "60": 1,
    "120": 1,
    "text": "better buy: square, inc. vs. visa",
    "300": -1,
    "240": 1
  },
  "712203": {
    "180": -1,
    "60": 1,
    "120": -1,
    "text": "wal-mart stores, inc.\u2019s (wmt) plan to win black friday? cyber monday.",
    "300": -1,
    "240": -1
  },
  "711274": {
    "180": 1,
    "60": 1,
    "120": 1,
    "text": "xlk, v, adp, amat: large outflows detected at etf",
    "300": 1,
    "240": 1
  },
  "710777": {
    "180": -1,
    "60": -1,
    "120": -1,
    "text": "what can we expect from boeing under trump's presidency",
    "300": 1,
    "240": 1
  },
  "703377": {
    "180": 1,
    "60": -1,
    "120": 1,
    "text": "dow analyst moves: axp",
    "300": 1,
    "240": 1
  },
  "712814": {
    "180": 1,
    "60": 1,
    "120": 0,
    "text": "apple inc. (aapl) still has plenty of tricks up its sleeve",
    "300": 1,
    "240": 1
  },
  "711321": {
    "180": -1,
    "60": 0,
    "120": 1,
    "text": "3 stocks to keep you invested after retirement",
    "300": -1,
    "240": -1
  },
  "706745": {
    "180": -1,
    "60": -1,
    "120": -1,
    "text": "2 stocks to buy and hold in a volatile market",
    "300": -1,
    "240": -1
  },
  "710735": {
    "180": -1,
    "60": -1,
    "120": -1,
    "text": "3 naked puts to generate a $1000 in holiday cash",
    "300": -1,
    "240": -1
  },
  "20161122-00658": {
    "180": 1,
    "60": 1,
    "120": 1,
    "text": "dow tops 19000 for first time",
    "300": 1,
    "240": 1
  },
  "712669": {
    "180": -1,
    "60": -1,
    "120": -1,
    "text": "dycom industries (dy) beats on q1 earnings, revenues miss",
    "300": -1,
    "240": -1
  },
  "712194": {
    "180": -1,
    "60": 1,
    "120": 1,
    "text": "3 big stock charts: tyson foods, inc. (tsn), apple inc. (aapl) and tiffany & co. (tif)",
    "300": -1,
    "240": -1
  },
  "20161121-00889": {
    "180": -1,
    "60": -1,
    "120": -1,
    "text": "amazon explores rights for live sports packages on prime",
    "300": -1,
    "240": -1
  },
  "20161109-01522": {
    "180": 1,
    "60": 1,
    "120": 1,
    "text": "yahoo investigating if hacker has access to user accounts",
    "300": 1,
    "240": 1
  },
  "20161122-01181": {
    "180": 1,
    "60": 0,
    "120": 1,
    "text": "correction to venezuela's pdvsa misses $404 million payments on bonds",
    "300": 1,
    "240": 1
  },
  "712192": {
    "180": -1,
    "60": 1,
    "120": -1,
    "text": "one put, one call option to know about for intel",
    "300": 1,
    "240": -1
  },
  "20161122-01227": {
    "180": 1,
    "60": 1,
    "120": 1,
    "text": "fiji airways announces its commitment to purchase five boeing 737 max 8s",
    "300": 1,
    "240": 1
  },
  "20161123-00667": {
    "180": 1,
    "60": 1,
    "120": 1,
    "text": "dow, s&p 500 reach new record highs amid light trading - u.s. commentary",
    "300": 1,
    "240": 1
  },
  "20161104-00507": {
    "180": 1,
    "60": 1,
    "120": 1,
    "text": "interoil seeks new path to exxon deal after yukon approval overturned",
    "300": 1,
    "240": 1
  },
  "20161116-01113": {
    "180": 1,
    "60": -1,
    "120": 1,
    "text": "major averages close mixed following lackluster session - u.s. commentary",
    "300": -1,
    "240": -1
  },
  "20161121-01086": {
    "180": 1,
    "60": 1,
    "120": 1,
    "text": "boeing names kevin mcallister new head of commercial aircraft unit",
    "300": 1,
    "240": 1
  },
  "706982": {
    "180": -1,
    "60": -1,
    "120": -1,
    "text": "3 growth dividend stocks to buy in november",
    "300": -1,
    "240": -1
  },
  "20161121-01176": {
    "180": 1,
    "60": 0,
    "120": 1,
    "text": "apple will fix troubled iphone 6s units",
    "300": 1,
    "240": 1
  },
  "712009": {
    "180": 1,
    "60": 1,
    "120": 1,
    "text": "qualcomm & samsung tie up for latest snapdragon chipset",
    "300": 1,
    "240": -1
  },
  "712299": {
    "180": 1,
    "60": 1,
    "120": 1,
    "text": "why applied micro circuits corp. shares are up today",
    "300": 1,
    "240": 1
  },
  "712790": {
    "180": 1,
    "60": 1,
    "120": 1,
    "text": "fitbit inc (fit) stock is near a palatable valuation, but don\u2019t buy!",
    "300": 1,
    "240": 1
  },
  "20161121-01158": {
    "180": 1,
    "60": 0,
    "120": 1,
    "text": "presidio is expected to file for ipo",
    "300": 1,
    "240": 1
  },
  "712728": {
    "180": 1,
    "60": 1,
    "120": 1,
    "text": "stock market news for november 22, 2016",
    "300": 1,
    "240": 1
  },
  "707790": {
    "180": -1,
    "60": -1,
    "120": 1,
    "text": "humana hits 52-week high on solid q3 results, revised view",
    "300": -1,
    "240": -1
  },
  "20161111-00565": {
    "180": -1,
    "60": -1,
    "120": -1,
    "text": "ibm courts coders with watson",
    "300": -1,
    "240": -1
  },
  "712857": {
    "180": 1,
    "60": 1,
    "120": 1,
    "text": "in your 60s? 2 dividend stocks you might want to buy",
    "300": -1,
    "240": 1
  },
  "20161117-01030": {
    "180": 1,
    "60": 1,
    "120": 1,
    "text": "mexico lifts rates amid peso's fall, trump's rise",
    "300": 1,
    "240": -1
  },
  "710680": {
    "180": -1,
    "60": 0,
    "120": 1,
    "text": "iyj, unp, cat, gd: etf inflow alert",
    "300": -1,
    "240": -1
  },
  "20161121-01103": {
    "180": 1,
    "60": 1,
    "120": 1,
    "text": "at&t, dish, wpp to buy invidi technologies",
    "300": 1,
    "240": 1
  },
  "712796": {
    "180": 1,
    "60": -1,
    "120": -1,
    "text": "boeing appoints kevin mcallister as commercial airlines ceo",
    "300": 1,
    "240": 1
  },
  "711087": {
    "180": -1,
    "60": 0,
    "120": 1,
    "text": "salesforce (crm) rises on strong q3 earnings; lifts outlook",
    "300": 1,
    "240": 1
  },
  "708605": {
    "180": 1,
    "60": 1,
    "120": 1,
    "text": "how to invest during the trump presidency",
    "300": 1,
    "240": 1
  },
  "711297": {
    "180": 1,
    "60": 1,
    "120": 1,
    "text": "dia, ibm, mcd, trv: large inflows detected at etf",
    "300": -1,
    "240": 1
  },
  "20161115-01421": {
    "180": 1,
    "60": -1,
    "120": 1,
    "text": "intel courts autonomous car makers -- 2nd update",
    "300": 1,
    "240": 1
  },
  "20161116-01081": {
    "180": -1,
    "60": -1,
    "120": -1,
    "text": "cisco systems inc. q1 profit advances 3%",
    "300": -1,
    "240": -1
  },
  "20161117-01246": {
    "180": 0,
    "60": 1,
    "120": 1,
    "text": "best buy sales top views, aided by online revenue -- 4th update",
    "300": -1,
    "240": -1
  },
  "705463": {
    "180": -1,
    "60": 1,
    "120": -1,
    "text": "kemper (kmpr) incurs loss in q3; revenues beat estimates",
    "300": 1,
    "240": 1
  },
  "710607": {
    "180": 1,
    "60": 1,
    "120": 1,
    "text": "what's in the cards for hp inc. (hpq) in q4 earnings?",
    "300": 1,
    "240": 1
  },
  "705189": {
    "180": -1,
    "60": -1,
    "120": -1,
    "text": "berkshire hathaway inc. (brk.b) stock lifted by a q3 beat",
    "300": -1,
    "240": -1
  },
  "709551": {
    "180": 1,
    "60": 1,
    "120": 1,
    "text": "general electric company (ge) stock looks good in trump\u2019s america",
    "300": 1,
    "240": 1
  },
  "712817": {
    "180": 1,
    "60": 1,
    "120": 0,
    "text": "why building a \u2018legacy\u2019 portfolio pays off",
    "300": 1,
    "240": 1
  },
  "20161122-00951": {
    "180": 1,
    "60": 1,
    "120": 1,
    "text": "appdynamics postpones planned december ipo until next year",
    "300": -1,
    "240": 1
  },
  "712823": {
    "180": 1,
    "60": 1,
    "120": 0,
    "text": "this is why microsoft corporation (msft) is worth its valuation",
    "300": 1,
    "240": 1
  },
  "712706": {
    "180": 1,
    "60": 1,
    "120": 1,
    "text": "ive, jpm, slb, wmt: large inflows detected at etf",
    "300": 1,
    "240": 1
  },
  "712647": {
    "180": 1,
    "60": 1,
    "120": 1,
    "text": "walt disney co is on track to have the best year in box office history",
    "300": 1,
    "240": 1
  },
  "20161114-01209": {
    "180": 1,
    "60": 1,
    "120": 1,
    "text": "medicare identifies which prescription drugs were costliest in 2015",
    "300": 1,
    "240": 1
  },
  "20161115-01301": {
    "180": -1,
    "60": 1,
    "120": -1,
    "text": "market snapshot: dow closes at record high for fourth straight session",
    "300": -1,
    "240": -1
  },
  "20161117-01197": {
    "180": -1,
    "60": -1,
    "120": -1,
    "text": "stocks close higher following slew of data, yellen comments - u.s. commentary",
    "300": 1,
    "240": -1
  },
  "20161109-01455": {
    "180": -1,
    "60": -1,
    "120": -1,
    "text": "silicon valley braces for uncertainty after donald trump''s victory--update",
    "300": -1,
    "240": -1
  },
  "709640": {
    "180": -1,
    "60": -1,
    "120": -1,
    "text": "airline news: alaska's tree-based jet fuel, united's basic economy fare",
    "300": -1,
    "240": -1
  },
  "20161121-01137": {
    "180": 1,
    "60": 0,
    "120": 1,
    "text": "venezuela's pdvsa misses $404 million payments on bonds",
    "300": 1,
    "240": 1
  },
  "710179": {
    "180": 1,
    "60": -1,
    "120": 1,
    "text": "the best dividend stocks of 2016",
    "300": 1,
    "240": 1
  },
  "20161115-01352": {
    "180": -1,
    "60": -1,
    "120": -1,
    "text": "find mcrib with your phone",
    "300": -1,
    "240": -1
  },
  "712852": {
    "180": 1,
    "60": 1,
    "120": -1,
    "text": "how to visualize financial trends with interactive charts",
    "300": 1,
    "240": 1
  },
  "711319": {
    "180": -1,
    "60": 0,
    "120": 1,
    "text": "johnson & johnson takes aim at abbvie",
    "300": -1,
    "240": -1
  },
  "712897": {
    "180": 1,
    "60": 1,
    "120": 1,
    "text": "good-bye airport extreme: first displays, now apple inc. (aapl) drops routers",
    "300": 1,
    "240": 1
  },
  "711253": {
    "180": -1,
    "60": -1,
    "120": -1,
    "text": "is pfizer rethinking a company spin-off?",
    "300": -1,
    "240": -1
  },
  "712801": {
    "180": 1,
    "60": -1,
    "120": 1,
    "text": "what will a trump presidency mean for u.s. manufacturing stocks?",
    "300": 1,
    "240": 1
  }
}